^D:\LAOSONG\HOMEWORK\ADVANCED-GAME-TECHNOLOGIES\FONTBUILDER\DEBUG\SOURCE.OBJ
D:\LAOSONG\HOMEWORK\ADVANCED-GAME-TECHNOLOGIES\DEBUG\FONTBUILDER.ILK
D:\LAOSONG\HOMEWORK\ADVANCED-GAME-TECHNOLOGIES\DEBUG\FONTBUILDER.EXE
D:\LAOSONG\HOMEWORK\ADVANCED-GAME-TECHNOLOGIES\DEBUG\FONTBUILDER.PDB
