^H:\DESKTOP\TECHNOLOGIES\CSC8503\CSC8503COMMON\BOUNDINGAABB.CPP
/c /ZI /JMC /nologo /W3 /WX- /diagnostics:column /sdl /Od /Oy- /D _MBCS /Gm- /EHsc /RTC1 /MDd /GS /fp:precise /permissive- /Zc:wchar_t /Zc:forScope /Zc:inline /Fo"DEBUG\\" /Fd"DEBUG\CSC8503COMMON.PDB" /Gd /TP /analyze- /FC H:\DESKTOP\TECHNOLOGIES\CSC8503\CSC8503COMMON\BOUNDINGAABB.CPP
^H:\DESKTOP\TECHNOLOGIES\CSC8503\CSC8503COMMON\BOUNDINGOOBB.CPP
/c /ZI /JMC /nologo /W3 /WX- /diagnostics:column /sdl /Od /Oy- /D _MBCS /Gm- /EHsc /RTC1 /MDd /GS /fp:precise /permissive- /Zc:wchar_t /Zc:forScope /Zc:inline /Fo"DEBUG\\" /Fd"DEBUG\CSC8503COMMON.PDB" /Gd /TP /analyze- /FC H:\DESKTOP\TECHNOLOGIES\CSC8503\CSC8503COMMON\BOUNDINGOOBB.CPP
^H:\DESKTOP\TECHNOLOGIES\CSC8503\CSC8503COMMON\BOUNDINGSPHERE.CPP
/c /ZI /JMC /nologo /W3 /WX- /diagnostics:column /sdl /Od /Oy- /D _MBCS /Gm- /EHsc /RTC1 /MDd /GS /fp:precise /permissive- /Zc:wchar_t /Zc:forScope /Zc:inline /Fo"DEBUG\\" /Fd"DEBUG\CSC8503COMMON.PDB" /Gd /TP /analyze- /FC H:\DESKTOP\TECHNOLOGIES\CSC8503\CSC8503COMMON\BOUNDINGSPHERE.CPP
^H:\DESKTOP\TECHNOLOGIES\CSC8503\CSC8503COMMON\BOUNDINGVOLUME.CPP
/c /ZI /JMC /nologo /W3 /WX- /diagnostics:column /sdl /Od /Oy- /D _MBCS /Gm- /EHsc /RTC1 /MDd /GS /fp:precise /permissive- /Zc:wchar_t /Zc:forScope /Zc:inline /Fo"DEBUG\\" /Fd"DEBUG\CSC8503COMMON.PDB" /Gd /TP /analyze- /FC H:\DESKTOP\TECHNOLOGIES\CSC8503\CSC8503COMMON\BOUNDINGVOLUME.CPP
^H:\DESKTOP\TECHNOLOGIES\CSC8503\CSC8503COMMON\COLLISIONDETECTION.CPP
/c /ZI /JMC /nologo /W3 /WX- /diagnostics:column /sdl /Od /Oy- /D _MBCS /Gm- /EHsc /RTC1 /MDd /GS /fp:precise /permissive- /Zc:wchar_t /Zc:forScope /Zc:inline /Fo"DEBUG\\" /Fd"DEBUG\CSC8503COMMON.PDB" /Gd /TP /analyze- /FC H:\DESKTOP\TECHNOLOGIES\CSC8503\CSC8503COMMON\COLLISIONDETECTION.CPP
^H:\DESKTOP\TECHNOLOGIES\CSC8503\CSC8503COMMON\DEBUG.CPP
/c /ZI /JMC /nologo /W3 /WX- /diagnostics:column /sdl /Od /Oy- /D _MBCS /Gm- /EHsc /RTC1 /MDd /GS /fp:precise /permissive- /Zc:wchar_t /Zc:forScope /Zc:inline /Fo"DEBUG\\" /Fd"DEBUG\CSC8503COMMON.PDB" /Gd /TP /analyze- /FC H:\DESKTOP\TECHNOLOGIES\CSC8503\CSC8503COMMON\DEBUG.CPP
^H:\DESKTOP\TECHNOLOGIES\CSC8503\CSC8503COMMON\GAMEOBJECT.CPP
/c /ZI /JMC /nologo /W3 /WX- /diagnostics:column /sdl /Od /Oy- /D _MBCS /Gm- /EHsc /RTC1 /MDd /GS /fp:precise /permissive- /Zc:wchar_t /Zc:forScope /Zc:inline /Fo"DEBUG\\" /Fd"DEBUG\CSC8503COMMON.PDB" /Gd /TP /analyze- /FC H:\DESKTOP\TECHNOLOGIES\CSC8503\CSC8503COMMON\GAMEOBJECT.CPP
^H:\DESKTOP\TECHNOLOGIES\CSC8503\CSC8503COMMON\GAMEWORLD.CPP
/c /ZI /JMC /nologo /W3 /WX- /diagnostics:column /sdl /Od /Oy- /D _MBCS /Gm- /EHsc /RTC1 /MDd /GS /fp:precise /permissive- /Zc:wchar_t /Zc:forScope /Zc:inline /Fo"DEBUG\\" /Fd"DEBUG\CSC8503COMMON.PDB" /Gd /TP /analyze- /FC H:\DESKTOP\TECHNOLOGIES\CSC8503\CSC8503COMMON\GAMEWORLD.CPP
^H:\DESKTOP\TECHNOLOGIES\CSC8503\CSC8503COMMON\NAVIGATIONGRID.CPP
/c /ZI /JMC /nologo /W3 /WX- /diagnostics:column /sdl /Od /Oy- /D _MBCS /Gm- /EHsc /RTC1 /MDd /GS /fp:precise /permissive- /Zc:wchar_t /Zc:forScope /Zc:inline /Fo"DEBUG\\" /Fd"DEBUG\CSC8503COMMON.PDB" /Gd /TP /analyze- /FC H:\DESKTOP\TECHNOLOGIES\CSC8503\CSC8503COMMON\NAVIGATIONGRID.CPP
^H:\DESKTOP\TECHNOLOGIES\CSC8503\CSC8503COMMON\NAVIGATIONMESH.CPP
/c /ZI /JMC /nologo /W3 /WX- /diagnostics:column /sdl /Od /Oy- /D _MBCS /Gm- /EHsc /RTC1 /MDd /GS /fp:precise /permissive- /Zc:wchar_t /Zc:forScope /Zc:inline /Fo"DEBUG\\" /Fd"DEBUG\CSC8503COMMON.PDB" /Gd /TP /analyze- /FC H:\DESKTOP\TECHNOLOGIES\CSC8503\CSC8503COMMON\NAVIGATIONMESH.CPP
^H:\DESKTOP\TECHNOLOGIES\CSC8503\CSC8503COMMON\NETWORKSTATE.CPP
/c /ZI /JMC /nologo /W3 /WX- /diagnostics:column /sdl /Od /Oy- /D _MBCS /Gm- /EHsc /RTC1 /MDd /GS /fp:precise /permissive- /Zc:wchar_t /Zc:forScope /Zc:inline /Fo"DEBUG\\" /Fd"DEBUG\CSC8503COMMON.PDB" /Gd /TP /analyze- /FC H:\DESKTOP\TECHNOLOGIES\CSC8503\CSC8503COMMON\NETWORKSTATE.CPP
^H:\DESKTOP\TECHNOLOGIES\CSC8503\CSC8503COMMON\PHYSICSOBJECT.CPP
/c /ZI /JMC /nologo /W3 /WX- /diagnostics:column /sdl /Od /Oy- /D _MBCS /Gm- /EHsc /RTC1 /MDd /GS /fp:precise /permissive- /Zc:wchar_t /Zc:forScope /Zc:inline /Fo"DEBUG\\" /Fd"DEBUG\CSC8503COMMON.PDB" /Gd /TP /analyze- /FC H:\DESKTOP\TECHNOLOGIES\CSC8503\CSC8503COMMON\PHYSICSOBJECT.CPP
^H:\DESKTOP\TECHNOLOGIES\CSC8503\CSC8503COMMON\PHYSICSSYSTEM.CPP
/c /ZI /JMC /nologo /W3 /WX- /diagnostics:column /sdl /Od /Oy- /D _MBCS /Gm- /EHsc /RTC1 /MDd /GS /fp:precise /permissive- /Zc:wchar_t /Zc:forScope /Zc:inline /Fo"DEBUG\\" /Fd"DEBUG\CSC8503COMMON.PDB" /Gd /TP /analyze- /FC H:\DESKTOP\TECHNOLOGIES\CSC8503\CSC8503COMMON\PHYSICSSYSTEM.CPP
^H:\DESKTOP\TECHNOLOGIES\CSC8503\CSC8503COMMON\POSITIONCONSTRAINT.CPP
/c /ZI /JMC /nologo /W3 /WX- /diagnostics:column /sdl /Od /Oy- /D _MBCS /Gm- /EHsc /RTC1 /MDd /GS /fp:precise /permissive- /Zc:wchar_t /Zc:forScope /Zc:inline /Fo"DEBUG\\" /Fd"DEBUG\CSC8503COMMON.PDB" /Gd /TP /analyze- /FC H:\DESKTOP\TECHNOLOGIES\CSC8503\CSC8503COMMON\POSITIONCONSTRAINT.CPP
^H:\DESKTOP\TECHNOLOGIES\CSC8503\CSC8503COMMON\PUSHDOWNMACHINE.CPP
/c /ZI /JMC /nologo /W3 /WX- /diagnostics:column /sdl /Od /Oy- /D _MBCS /Gm- /EHsc /RTC1 /MDd /GS /fp:precise /permissive- /Zc:wchar_t /Zc:forScope /Zc:inline /Fo"DEBUG\\" /Fd"DEBUG\CSC8503COMMON.PDB" /Gd /TP /analyze- /FC H:\DESKTOP\TECHNOLOGIES\CSC8503\CSC8503COMMON\PUSHDOWNMACHINE.CPP
^H:\DESKTOP\TECHNOLOGIES\CSC8503\CSC8503COMMON\PUSHDOWNSTATE.CPP
/c /ZI /JMC /nologo /W3 /WX- /diagnostics:column /sdl /Od /Oy- /D _MBCS /Gm- /EHsc /RTC1 /MDd /GS /fp:precise /permissive- /Zc:wchar_t /Zc:forScope /Zc:inline /Fo"DEBUG\\" /Fd"DEBUG\CSC8503COMMON.PDB" /Gd /TP /analyze- /FC H:\DESKTOP\TECHNOLOGIES\CSC8503\CSC8503COMMON\PUSHDOWNSTATE.CPP
^H:\DESKTOP\TECHNOLOGIES\CSC8503\CSC8503COMMON\QUADTREE.CPP
/c /ZI /JMC /nologo /W3 /WX- /diagnostics:column /sdl /Od /Oy- /D _MBCS /Gm- /EHsc /RTC1 /MDd /GS /fp:precise /permissive- /Zc:wchar_t /Zc:forScope /Zc:inline /Fo"DEBUG\\" /Fd"DEBUG\CSC8503COMMON.PDB" /Gd /TP /analyze- /FC H:\DESKTOP\TECHNOLOGIES\CSC8503\CSC8503COMMON\QUADTREE.CPP
^H:\DESKTOP\TECHNOLOGIES\CSC8503\CSC8503COMMON\RENDEROBJECT.CPP
/c /ZI /JMC /nologo /W3 /WX- /diagnostics:column /sdl /Od /Oy- /D _MBCS /Gm- /EHsc /RTC1 /MDd /GS /fp:precise /permissive- /Zc:wchar_t /Zc:forScope /Zc:inline /Fo"DEBUG\\" /Fd"DEBUG\CSC8503COMMON.PDB" /Gd /TP /analyze- /FC H:\DESKTOP\TECHNOLOGIES\CSC8503\CSC8503COMMON\RENDEROBJECT.CPP
^H:\DESKTOP\TECHNOLOGIES\CSC8503\CSC8503COMMON\STATEMACHINE.CPP
/c /ZI /JMC /nologo /W3 /WX- /diagnostics:column /sdl /Od /Oy- /D _MBCS /Gm- /EHsc /RTC1 /MDd /GS /fp:precise /permissive- /Zc:wchar_t /Zc:forScope /Zc:inline /Fo"DEBUG\\" /Fd"DEBUG\CSC8503COMMON.PDB" /Gd /TP /analyze- /FC H:\DESKTOP\TECHNOLOGIES\CSC8503\CSC8503COMMON\STATEMACHINE.CPP
^H:\DESKTOP\TECHNOLOGIES\CSC8503\CSC8503COMMON\STATETRANSITION.CPP
/c /ZI /JMC /nologo /W3 /WX- /diagnostics:column /sdl /Od /Oy- /D _MBCS /Gm- /EHsc /RTC1 /MDd /GS /fp:precise /permissive- /Zc:wchar_t /Zc:forScope /Zc:inline /Fo"DEBUG\\" /Fd"DEBUG\CSC8503COMMON.PDB" /Gd /TP /analyze- /FC H:\DESKTOP\TECHNOLOGIES\CSC8503\CSC8503COMMON\STATETRANSITION.CPP
^H:\DESKTOP\TECHNOLOGIES\CSC8503\CSC8503COMMON\TRANSFORM.CPP
/c /ZI /JMC /nologo /W3 /WX- /diagnostics:column /sdl /Od /Oy- /D _MBCS /Gm- /EHsc /RTC1 /MDd /GS /fp:precise /permissive- /Zc:wchar_t /Zc:forScope /Zc:inline /Fo"DEBUG\\" /Fd"DEBUG\CSC8503COMMON.PDB" /Gd /TP /analyze- /FC H:\DESKTOP\TECHNOLOGIES\CSC8503\CSC8503COMMON\TRANSFORM.CPP
^H:\DESKTOP\TECHNOLOGIES\CSC8503\CSC8503COMMON\GAMECLIENT.CPP
/c /ZI /JMC /nologo /W3 /WX- /diagnostics:column /sdl /Od /Oy- /D _MBCS /Gm- /EHsc /RTC1 /MDd /GS /fp:precise /permissive- /Zc:wchar_t /Zc:forScope /Zc:inline /Fo"DEBUG\\" /Fd"DEBUG\CSC8503COMMON.PDB" /Gd /TP /analyze- /FC H:\DESKTOP\TECHNOLOGIES\CSC8503\CSC8503COMMON\GAMECLIENT.CPP
^H:\DESKTOP\TECHNOLOGIES\CSC8503\CSC8503COMMON\GAMESERVER.CPP
/c /ZI /JMC /nologo /W3 /WX- /diagnostics:column /sdl /Od /Oy- /D _MBCS /Gm- /EHsc /RTC1 /MDd /GS /fp:precise /permissive- /Zc:wchar_t /Zc:forScope /Zc:inline /Fo"DEBUG\\" /Fd"DEBUG\CSC8503COMMON.PDB" /Gd /TP /analyze- /FC H:\DESKTOP\TECHNOLOGIES\CSC8503\CSC8503COMMON\GAMESERVER.CPP
^H:\DESKTOP\TECHNOLOGIES\CSC8503\CSC8503COMMON\NETWORKBASE.CPP
/c /ZI /JMC /nologo /W3 /WX- /diagnostics:column /sdl /Od /Oy- /D _MBCS /Gm- /EHsc /RTC1 /MDd /GS /fp:precise /permissive- /Zc:wchar_t /Zc:forScope /Zc:inline /Fo"DEBUG\\" /Fd"DEBUG\CSC8503COMMON.PDB" /Gd /TP /analyze- /FC H:\DESKTOP\TECHNOLOGIES\CSC8503\CSC8503COMMON\NETWORKBASE.CPP
^H:\DESKTOP\TECHNOLOGIES\CSC8503\CSC8503COMMON\NETWORKOBJECT.CPP
/c /ZI /JMC /nologo /W3 /WX- /diagnostics:column /sdl /Od /Oy- /D _MBCS /Gm- /EHsc /RTC1 /MDd /GS /fp:precise /permissive- /Zc:wchar_t /Zc:forScope /Zc:inline /Fo"DEBUG\\" /Fd"DEBUG\CSC8503COMMON.PDB" /Gd /TP /analyze- /FC H:\DESKTOP\TECHNOLOGIES\CSC8503\CSC8503COMMON\NETWORKOBJECT.CPP
^D:\LAOSONG\HOMEWORK\ADVANCED-GAME-TECHNOLOGIES\CSC8503\CSC8503COMMON\BOUNDINGAABB.CPP
/c /ZI /JMC /nologo /W3 /WX- /diagnostics:column /sdl /Od /Oy- /D _MBCS /Gm- /EHsc /RTC1 /MDd /GS /fp:precise /permissive- /Zc:wchar_t /Zc:forScope /Zc:inline /Fo"DEBUG\\" /Fd"DEBUG\CSC8503COMMON.PDB" /Gd /TP /analyze- /FC D:\LAOSONG\HOMEWORK\ADVANCED-GAME-TECHNOLOGIES\CSC8503\CSC8503COMMON\BOUNDINGAABB.CPP
^D:\LAOSONG\HOMEWORK\ADVANCED-GAME-TECHNOLOGIES\CSC8503\CSC8503COMMON\BOUNDINGOOBB.CPP
/c /ZI /JMC /nologo /W3 /WX- /diagnostics:column /sdl /Od /Oy- /D _MBCS /Gm- /EHsc /RTC1 /MDd /GS /fp:precise /permissive- /Zc:wchar_t /Zc:forScope /Zc:inline /Fo"DEBUG\\" /Fd"DEBUG\CSC8503COMMON.PDB" /Gd /TP /analyze- /FC D:\LAOSONG\HOMEWORK\ADVANCED-GAME-TECHNOLOGIES\CSC8503\CSC8503COMMON\BOUNDINGOOBB.CPP
^D:\LAOSONG\HOMEWORK\ADVANCED-GAME-TECHNOLOGIES\CSC8503\CSC8503COMMON\BOUNDINGSPHERE.CPP
/c /ZI /JMC /nologo /W3 /WX- /diagnostics:column /sdl /Od /Oy- /D _MBCS /Gm- /EHsc /RTC1 /MDd /GS /fp:precise /permissive- /Zc:wchar_t /Zc:forScope /Zc:inline /Fo"DEBUG\\" /Fd"DEBUG\CSC8503COMMON.PDB" /Gd /TP /analyze- /FC D:\LAOSONG\HOMEWORK\ADVANCED-GAME-TECHNOLOGIES\CSC8503\CSC8503COMMON\BOUNDINGSPHERE.CPP
^D:\LAOSONG\HOMEWORK\ADVANCED-GAME-TECHNOLOGIES\CSC8503\CSC8503COMMON\BOUNDINGVOLUME.CPP
/c /ZI /JMC /nologo /W3 /WX- /diagnostics:column /sdl /Od /Oy- /D _MBCS /Gm- /EHsc /RTC1 /MDd /GS /fp:precise /permissive- /Zc:wchar_t /Zc:forScope /Zc:inline /Fo"DEBUG\\" /Fd"DEBUG\CSC8503COMMON.PDB" /Gd /TP /analyze- /FC D:\LAOSONG\HOMEWORK\ADVANCED-GAME-TECHNOLOGIES\CSC8503\CSC8503COMMON\BOUNDINGVOLUME.CPP
^D:\LAOSONG\HOMEWORK\ADVANCED-GAME-TECHNOLOGIES\CSC8503\CSC8503COMMON\DEBUG.CPP
/c /ZI /JMC /nologo /W3 /WX- /diagnostics:column /sdl /Od /Oy- /D _MBCS /Gm- /EHsc /RTC1 /MDd /GS /fp:precise /permissive- /Zc:wchar_t /Zc:forScope /Zc:inline /Fo"DEBUG\\" /Fd"DEBUG\CSC8503COMMON.PDB" /Gd /TP /analyze- /FC D:\LAOSONG\HOMEWORK\ADVANCED-GAME-TECHNOLOGIES\CSC8503\CSC8503COMMON\DEBUG.CPP
^D:\LAOSONG\HOMEWORK\ADVANCED-GAME-TECHNOLOGIES\CSC8503\CSC8503COMMON\GAMECLIENT.CPP
/c /ZI /JMC /nologo /W3 /WX- /diagnostics:column /sdl /Od /Oy- /D _MBCS /Gm- /EHsc /RTC1 /MDd /GS /fp:precise /permissive- /Zc:wchar_t /Zc:forScope /Zc:inline /Fo"DEBUG\\" /Fd"DEBUG\CSC8503COMMON.PDB" /Gd /TP /analyze- /FC D:\LAOSONG\HOMEWORK\ADVANCED-GAME-TECHNOLOGIES\CSC8503\CSC8503COMMON\GAMECLIENT.CPP
^D:\LAOSONG\HOMEWORK\ADVANCED-GAME-TECHNOLOGIES\CSC8503\CSC8503COMMON\NAVIGATIONGRID.CPP
/c /ZI /JMC /nologo /W3 /WX- /diagnostics:column /sdl /Od /Oy- /D _MBCS /Gm- /EHsc /RTC1 /MDd /GS /fp:precise /permissive- /Zc:wchar_t /Zc:forScope /Zc:inline /Fo"DEBUG\\" /Fd"DEBUG\CSC8503COMMON.PDB" /Gd /TP /analyze- /FC D:\LAOSONG\HOMEWORK\ADVANCED-GAME-TECHNOLOGIES\CSC8503\CSC8503COMMON\NAVIGATIONGRID.CPP
^D:\LAOSONG\HOMEWORK\ADVANCED-GAME-TECHNOLOGIES\CSC8503\CSC8503COMMON\NAVIGATIONMESH.CPP
/c /ZI /JMC /nologo /W3 /WX- /diagnostics:column /sdl /Od /Oy- /D _MBCS /Gm- /EHsc /RTC1 /MDd /GS /fp:precise /permissive- /Zc:wchar_t /Zc:forScope /Zc:inline /Fo"DEBUG\\" /Fd"DEBUG\CSC8503COMMON.PDB" /Gd /TP /analyze- /FC D:\LAOSONG\HOMEWORK\ADVANCED-GAME-TECHNOLOGIES\CSC8503\CSC8503COMMON\NAVIGATIONMESH.CPP
^D:\LAOSONG\HOMEWORK\ADVANCED-GAME-TECHNOLOGIES\CSC8503\CSC8503COMMON\NETWORKBASE.CPP
/c /ZI /JMC /nologo /W3 /WX- /diagnostics:column /sdl /Od /Oy- /D _MBCS /Gm- /EHsc /RTC1 /MDd /GS /fp:precise /permissive- /Zc:wchar_t /Zc:forScope /Zc:inline /Fo"DEBUG\\" /Fd"DEBUG\CSC8503COMMON.PDB" /Gd /TP /analyze- /FC D:\LAOSONG\HOMEWORK\ADVANCED-GAME-TECHNOLOGIES\CSC8503\CSC8503COMMON\NETWORKBASE.CPP
^D:\LAOSONG\HOMEWORK\ADVANCED-GAME-TECHNOLOGIES\CSC8503\CSC8503COMMON\NETWORKSTATE.CPP
/c /ZI /JMC /nologo /W3 /WX- /diagnostics:column /sdl /Od /Oy- /D _MBCS /Gm- /EHsc /RTC1 /MDd /GS /fp:precise /permissive- /Zc:wchar_t /Zc:forScope /Zc:inline /Fo"DEBUG\\" /Fd"DEBUG\CSC8503COMMON.PDB" /Gd /TP /analyze- /FC D:\LAOSONG\HOMEWORK\ADVANCED-GAME-TECHNOLOGIES\CSC8503\CSC8503COMMON\NETWORKSTATE.CPP
^D:\LAOSONG\HOMEWORK\ADVANCED-GAME-TECHNOLOGIES\CSC8503\CSC8503COMMON\PUSHDOWNMACHINE.CPP
/c /ZI /JMC /nologo /W3 /WX- /diagnostics:column /sdl /Od /Oy- /D _MBCS /Gm- /EHsc /RTC1 /MDd /GS /fp:precise /permissive- /Zc:wchar_t /Zc:forScope /Zc:inline /Fo"DEBUG\\" /Fd"DEBUG\CSC8503COMMON.PDB" /Gd /TP /analyze- /FC D:\LAOSONG\HOMEWORK\ADVANCED-GAME-TECHNOLOGIES\CSC8503\CSC8503COMMON\PUSHDOWNMACHINE.CPP
^D:\LAOSONG\HOMEWORK\ADVANCED-GAME-TECHNOLOGIES\CSC8503\CSC8503COMMON\PUSHDOWNSTATE.CPP
/c /ZI /JMC /nologo /W3 /WX- /diagnostics:column /sdl /Od /Oy- /D _MBCS /Gm- /EHsc /RTC1 /MDd /GS /fp:precise /permissive- /Zc:wchar_t /Zc:forScope /Zc:inline /Fo"DEBUG\\" /Fd"DEBUG\CSC8503COMMON.PDB" /Gd /TP /analyze- /FC D:\LAOSONG\HOMEWORK\ADVANCED-GAME-TECHNOLOGIES\CSC8503\CSC8503COMMON\PUSHDOWNSTATE.CPP
^D:\LAOSONG\HOMEWORK\ADVANCED-GAME-TECHNOLOGIES\CSC8503\CSC8503COMMON\RENDEROBJECT.CPP
/c /ZI /JMC /nologo /W3 /WX- /diagnostics:column /sdl /Od /Oy- /D _MBCS /Gm- /EHsc /RTC1 /MDd /GS /fp:precise /permissive- /Zc:wchar_t /Zc:forScope /Zc:inline /Fo"DEBUG\\" /Fd"DEBUG\CSC8503COMMON.PDB" /Gd /TP /analyze- /FC D:\LAOSONG\HOMEWORK\ADVANCED-GAME-TECHNOLOGIES\CSC8503\CSC8503COMMON\RENDEROBJECT.CPP
^D:\LAOSONG\HOMEWORK\ADVANCED-GAME-TECHNOLOGIES\CSC8503\CSC8503COMMON\STATEMACHINE.CPP
/c /ZI /JMC /nologo /W3 /WX- /diagnostics:column /sdl /Od /Oy- /D _MBCS /Gm- /EHsc /RTC1 /MDd /GS /fp:precise /permissive- /Zc:wchar_t /Zc:forScope /Zc:inline /Fo"DEBUG\\" /Fd"DEBUG\CSC8503COMMON.PDB" /Gd /TP /analyze- /FC D:\LAOSONG\HOMEWORK\ADVANCED-GAME-TECHNOLOGIES\CSC8503\CSC8503COMMON\STATEMACHINE.CPP
^D:\LAOSONG\HOMEWORK\ADVANCED-GAME-TECHNOLOGIES\CSC8503\CSC8503COMMON\STATETRANSITION.CPP
/c /ZI /JMC /nologo /W3 /WX- /diagnostics:column /sdl /Od /Oy- /D _MBCS /Gm- /EHsc /RTC1 /MDd /GS /fp:precise /permissive- /Zc:wchar_t /Zc:forScope /Zc:inline /Fo"DEBUG\\" /Fd"DEBUG\CSC8503COMMON.PDB" /Gd /TP /analyze- /FC D:\LAOSONG\HOMEWORK\ADVANCED-GAME-TECHNOLOGIES\CSC8503\CSC8503COMMON\STATETRANSITION.CPP
^D:\LAOSONG\HOMEWORK\ADVANCED-GAME-TECHNOLOGIES\CSC8503\CSC8503COMMON\TRANSFORM.CPP
/c /ZI /JMC /nologo /W3 /WX- /diagnostics:column /sdl /Od /Oy- /D _MBCS /Gm- /EHsc /RTC1 /MDd /GS /fp:precise /permissive- /Zc:wchar_t /Zc:forScope /Zc:inline /Fo"DEBUG\\" /Fd"DEBUG\CSC8503COMMON.PDB" /Gd /TP /analyze- /FC D:\LAOSONG\HOMEWORK\ADVANCED-GAME-TECHNOLOGIES\CSC8503\CSC8503COMMON\TRANSFORM.CPP
^D:\LAOSONG\HOMEWORK\ADVANCED-GAME-TECHNOLOGIES\CSC8503\CSC8503COMMON\COLLISIONDETECTION.CPP
/c /ZI /JMC /nologo /W3 /WX- /diagnostics:column /sdl /Od /Oy- /D _MBCS /Gm- /EHsc /RTC1 /MDd /GS /fp:precise /permissive- /Zc:wchar_t /Zc:forScope /Zc:inline /Fo"DEBUG\\" /Fd"DEBUG\CSC8503COMMON.PDB" /Gd /TP /analyze- /FC D:\LAOSONG\HOMEWORK\ADVANCED-GAME-TECHNOLOGIES\CSC8503\CSC8503COMMON\COLLISIONDETECTION.CPP
^D:\LAOSONG\HOMEWORK\ADVANCED-GAME-TECHNOLOGIES\CSC8503\CSC8503COMMON\GAMEOBJECT.CPP
/c /ZI /JMC /nologo /W3 /WX- /diagnostics:column /sdl /Od /Oy- /D _MBCS /Gm- /EHsc /RTC1 /MDd /GS /fp:precise /permissive- /Zc:wchar_t /Zc:forScope /Zc:inline /Fo"DEBUG\\" /Fd"DEBUG\CSC8503COMMON.PDB" /Gd /TP /analyze- /FC D:\LAOSONG\HOMEWORK\ADVANCED-GAME-TECHNOLOGIES\CSC8503\CSC8503COMMON\GAMEOBJECT.CPP
^D:\LAOSONG\HOMEWORK\ADVANCED-GAME-TECHNOLOGIES\CSC8503\CSC8503COMMON\GAMESERVER.CPP
/c /ZI /JMC /nologo /W3 /WX- /diagnostics:column /sdl /Od /Oy- /D _MBCS /Gm- /EHsc /RTC1 /MDd /GS /fp:precise /permissive- /Zc:wchar_t /Zc:forScope /Zc:inline /Fo"DEBUG\\" /Fd"DEBUG\CSC8503COMMON.PDB" /Gd /TP /analyze- /FC D:\LAOSONG\HOMEWORK\ADVANCED-GAME-TECHNOLOGIES\CSC8503\CSC8503COMMON\GAMESERVER.CPP
^D:\LAOSONG\HOMEWORK\ADVANCED-GAME-TECHNOLOGIES\CSC8503\CSC8503COMMON\GAMEWORLD.CPP
/c /ZI /JMC /nologo /W3 /WX- /diagnostics:column /sdl /Od /Oy- /D _MBCS /Gm- /EHsc /RTC1 /MDd /GS /fp:precise /permissive- /Zc:wchar_t /Zc:forScope /Zc:inline /Fo"DEBUG\\" /Fd"DEBUG\CSC8503COMMON.PDB" /Gd /TP /analyze- /FC D:\LAOSONG\HOMEWORK\ADVANCED-GAME-TECHNOLOGIES\CSC8503\CSC8503COMMON\GAMEWORLD.CPP
^D:\LAOSONG\HOMEWORK\ADVANCED-GAME-TECHNOLOGIES\CSC8503\CSC8503COMMON\NETWORKOBJECT.CPP
/c /ZI /JMC /nologo /W3 /WX- /diagnostics:column /sdl /Od /Oy- /D _MBCS /Gm- /EHsc /RTC1 /MDd /GS /fp:precise /permissive- /Zc:wchar_t /Zc:forScope /Zc:inline /Fo"DEBUG\\" /Fd"DEBUG\CSC8503COMMON.PDB" /Gd /TP /analyze- /FC D:\LAOSONG\HOMEWORK\ADVANCED-GAME-TECHNOLOGIES\CSC8503\CSC8503COMMON\NETWORKOBJECT.CPP
^D:\LAOSONG\HOMEWORK\ADVANCED-GAME-TECHNOLOGIES\CSC8503\CSC8503COMMON\PHYSICSOBJECT.CPP
/c /ZI /JMC /nologo /W3 /WX- /diagnostics:column /sdl /Od /Oy- /D _MBCS /Gm- /EHsc /RTC1 /MDd /GS /fp:precise /permissive- /Zc:wchar_t /Zc:forScope /Zc:inline /Fo"DEBUG\\" /Fd"DEBUG\CSC8503COMMON.PDB" /Gd /TP /analyze- /FC D:\LAOSONG\HOMEWORK\ADVANCED-GAME-TECHNOLOGIES\CSC8503\CSC8503COMMON\PHYSICSOBJECT.CPP
^D:\LAOSONG\HOMEWORK\ADVANCED-GAME-TECHNOLOGIES\CSC8503\CSC8503COMMON\PHYSICSSYSTEM.CPP
/c /ZI /JMC /nologo /W3 /WX- /diagnostics:column /sdl /Od /Oy- /D _MBCS /Gm- /EHsc /RTC1 /MDd /GS /fp:precise /permissive- /Zc:wchar_t /Zc:forScope /Zc:inline /Fo"DEBUG\\" /Fd"DEBUG\CSC8503COMMON.PDB" /Gd /TP /analyze- /FC D:\LAOSONG\HOMEWORK\ADVANCED-GAME-TECHNOLOGIES\CSC8503\CSC8503COMMON\PHYSICSSYSTEM.CPP
^D:\LAOSONG\HOMEWORK\ADVANCED-GAME-TECHNOLOGIES\CSC8503\CSC8503COMMON\POSITIONCONSTRAINT.CPP
/c /ZI /JMC /nologo /W3 /WX- /diagnostics:column /sdl /Od /Oy- /D _MBCS /Gm- /EHsc /RTC1 /MDd /GS /fp:precise /permissive- /Zc:wchar_t /Zc:forScope /Zc:inline /Fo"DEBUG\\" /Fd"DEBUG\CSC8503COMMON.PDB" /Gd /TP /analyze- /FC D:\LAOSONG\HOMEWORK\ADVANCED-GAME-TECHNOLOGIES\CSC8503\CSC8503COMMON\POSITIONCONSTRAINT.CPP
^D:\LAOSONG\HOMEWORK\ADVANCED-GAME-TECHNOLOGIES\CSC8503\CSC8503COMMON\QUADTREE.CPP
/c /ZI /JMC /nologo /W3 /WX- /diagnostics:column /sdl /Od /Oy- /D _MBCS /Gm- /EHsc /RTC1 /MDd /GS /fp:precise /permissive- /Zc:wchar_t /Zc:forScope /Zc:inline /Fo"DEBUG\\" /Fd"DEBUG\CSC8503COMMON.PDB" /Gd /TP /analyze- /FC D:\LAOSONG\HOMEWORK\ADVANCED-GAME-TECHNOLOGIES\CSC8503\CSC8503COMMON\QUADTREE.CPP
