^D:\LAOSONG\HOMEWORK\ADVANCED-GAME-TECHNOLOGIES\PLUGINS\NETWORKING-ENET\CALLBACKS.C|D:\LAOSONG\HOMEWORK\ADVANCED-GAME-TECHNOLOGIES\PLUGINS\NETWORKING-ENET\COMPRESS.C|D:\LAOSONG\HOMEWORK\ADVANCED-GAME-TECHNOLOGIES\PLUGINS\NETWORKING-ENET\HOST.C|D:\LAOSONG\HOMEWORK\ADVANCED-GAME-TECHNOLOGIES\PLUGINS\NETWORKING-ENET\LIST.C|D:\LAOSONG\HOMEWORK\ADVANCED-GAME-TECHNOLOGIES\PLUGINS\NETWORKING-ENET\PACKET.C|D:\LAOSONG\HOMEWORK\ADVANCED-GAME-TECHNOLOGIES\PLUGINS\NETWORKING-ENET\PEER.C|D:\LAOSONG\HOMEWORK\ADVANCED-GAME-TECHNOLOGIES\PLUGINS\NETWORKING-ENET\PROTOCOL.C|D:\LAOSONG\HOMEWORK\ADVANCED-GAME-TECHNOLOGIES\PLUGINS\NETWORKING-ENET\WIN32.C
D:\LAOSONG\HOMEWORK\ADVANCED-GAME-TECHNOLOGIES\PLUGINS\NETWORKING-ENET\DEBUG\NETWORKING-ENET.PDB
D:\LAOSONG\HOMEWORK\ADVANCED-GAME-TECHNOLOGIES\PLUGINS\NETWORKING-ENET\DEBUG\NETWORKING-ENET.IDB
D:\LAOSONG\HOMEWORK\ADVANCED-GAME-TECHNOLOGIES\PLUGINS\NETWORKING-ENET\DEBUG\WIN32.OBJ
D:\LAOSONG\HOMEWORK\ADVANCED-GAME-TECHNOLOGIES\PLUGINS\NETWORKING-ENET\DEBUG\PROTOCOL.OBJ
D:\LAOSONG\HOMEWORK\ADVANCED-GAME-TECHNOLOGIES\PLUGINS\NETWORKING-ENET\DEBUG\PEER.OBJ
D:\LAOSONG\HOMEWORK\ADVANCED-GAME-TECHNOLOGIES\PLUGINS\NETWORKING-ENET\DEBUG\PACKET.OBJ
D:\LAOSONG\HOMEWORK\ADVANCED-GAME-TECHNOLOGIES\PLUGINS\NETWORKING-ENET\DEBUG\LIST.OBJ
D:\LAOSONG\HOMEWORK\ADVANCED-GAME-TECHNOLOGIES\PLUGINS\NETWORKING-ENET\DEBUG\HOST.OBJ
D:\LAOSONG\HOMEWORK\ADVANCED-GAME-TECHNOLOGIES\PLUGINS\NETWORKING-ENET\DEBUG\COMPRESS.OBJ
D:\LAOSONG\HOMEWORK\ADVANCED-GAME-TECHNOLOGIES\PLUGINS\NETWORKING-ENET\DEBUG\CALLBACKS.OBJ
^D:\LAOSONG\HOMEWORK\ADVANCED-GAME-TECHNOLOGIES\PLUGINS\NETWORKING-ENET\CALLBACKS.C
D:\LAOSONG\HOMEWORK\ADVANCED-GAME-TECHNOLOGIES\PLUGINS\NETWORKING-ENET\DEBUG\NETWORKING-ENET.PDB
^D:\LAOSONG\HOMEWORK\ADVANCED-GAME-TECHNOLOGIES\PLUGINS\NETWORKING-ENET\COMPRESS.C
D:\LAOSONG\HOMEWORK\ADVANCED-GAME-TECHNOLOGIES\PLUGINS\NETWORKING-ENET\DEBUG\NETWORKING-ENET.PDB
^D:\LAOSONG\HOMEWORK\ADVANCED-GAME-TECHNOLOGIES\PLUGINS\NETWORKING-ENET\HOST.C
D:\LAOSONG\HOMEWORK\ADVANCED-GAME-TECHNOLOGIES\PLUGINS\NETWORKING-ENET\DEBUG\NETWORKING-ENET.PDB
^D:\LAOSONG\HOMEWORK\ADVANCED-GAME-TECHNOLOGIES\PLUGINS\NETWORKING-ENET\LIST.C
D:\LAOSONG\HOMEWORK\ADVANCED-GAME-TECHNOLOGIES\PLUGINS\NETWORKING-ENET\DEBUG\NETWORKING-ENET.PDB
^D:\LAOSONG\HOMEWORK\ADVANCED-GAME-TECHNOLOGIES\PLUGINS\NETWORKING-ENET\PACKET.C
D:\LAOSONG\HOMEWORK\ADVANCED-GAME-TECHNOLOGIES\PLUGINS\NETWORKING-ENET\DEBUG\NETWORKING-ENET.PDB
^D:\LAOSONG\HOMEWORK\ADVANCED-GAME-TECHNOLOGIES\PLUGINS\NETWORKING-ENET\PEER.C
D:\LAOSONG\HOMEWORK\ADVANCED-GAME-TECHNOLOGIES\PLUGINS\NETWORKING-ENET\DEBUG\NETWORKING-ENET.PDB
^D:\LAOSONG\HOMEWORK\ADVANCED-GAME-TECHNOLOGIES\PLUGINS\NETWORKING-ENET\PROTOCOL.C
D:\LAOSONG\HOMEWORK\ADVANCED-GAME-TECHNOLOGIES\PLUGINS\NETWORKING-ENET\DEBUG\NETWORKING-ENET.PDB
^D:\LAOSONG\HOMEWORK\ADVANCED-GAME-TECHNOLOGIES\PLUGINS\NETWORKING-ENET\WIN32.C
D:\LAOSONG\HOMEWORK\ADVANCED-GAME-TECHNOLOGIES\PLUGINS\NETWORKING-ENET\DEBUG\NETWORKING-ENET.PDB
