^D:\LAOSONG\HOMEWORK\ADVANCED-GAME-TECHNOLOGIES\PLUGINS\NETWORKING-ENET\DEBUG\CALLBACKS.OBJ|D:\LAOSONG\HOMEWORK\ADVANCED-GAME-TECHNOLOGIES\PLUGINS\NETWORKING-ENET\DEBUG\COMPRESS.OBJ|D:\LAOSONG\HOMEWORK\ADVANCED-GAME-TECHNOLOGIES\PLUGINS\NETWORKING-ENET\DEBUG\HOST.OBJ|D:\LAOSONG\HOMEWORK\ADVANCED-GAME-TECHNOLOGIES\PLUGINS\NETWORKING-ENET\DEBUG\LIST.OBJ|D:\LAOSONG\HOMEWORK\ADVANCED-GAME-TECHNOLOGIES\PLUGINS\NETWORKING-ENET\DEBUG\PACKET.OBJ|D:\LAOSONG\HOMEWORK\ADVANCED-GAME-TECHNOLOGIES\PLUGINS\NETWORKING-ENET\DEBUG\PEER.OBJ|D:\LAOSONG\HOMEWORK\ADVANCED-GAME-TECHNOLOGIES\PLUGINS\NETWORKING-ENET\DEBUG\PROTOCOL.OBJ|D:\LAOSONG\HOMEWORK\ADVANCED-GAME-TECHNOLOGIES\PLUGINS\NETWORKING-ENET\DEBUG\WIN32.OBJ
D:\LAOSONG\HOMEWORK\ADVANCED-GAME-TECHNOLOGIES\PLUGINS\NETWORKING-ENET\DEBUG\CALLBACKS.OBJ
C:\WINDOWS\SYSTEM32\TZRES.DLL
D:\LAOSONG\HOMEWORK\ADVANCED-GAME-TECHNOLOGIES\PLUGINS\NETWORKING-ENET\DEBUG\COMPRESS.OBJ
D:\LAOSONG\HOMEWORK\ADVANCED-GAME-TECHNOLOGIES\PLUGINS\NETWORKING-ENET\DEBUG\HOST.OBJ
D:\LAOSONG\HOMEWORK\ADVANCED-GAME-TECHNOLOGIES\PLUGINS\NETWORKING-ENET\DEBUG\LIST.OBJ
D:\LAOSONG\HOMEWORK\ADVANCED-GAME-TECHNOLOGIES\PLUGINS\NETWORKING-ENET\DEBUG\PACKET.OBJ
D:\LAOSONG\HOMEWORK\ADVANCED-GAME-TECHNOLOGIES\PLUGINS\NETWORKING-ENET\DEBUG\PEER.OBJ
D:\LAOSONG\HOMEWORK\ADVANCED-GAME-TECHNOLOGIES\PLUGINS\NETWORKING-ENET\DEBUG\PROTOCOL.OBJ
D:\LAOSONG\HOMEWORK\ADVANCED-GAME-TECHNOLOGIES\PLUGINS\NETWORKING-ENET\DEBUG\WIN32.OBJ
C:\WINDOWS\GLOBALIZATION\SORTING\SORTDEFAULT.NLS
