^H:\DESKTOP\TECHNOLOGIES\COMMON\ASSETS.CPP
/c /ZI /JMC /nologo /W3 /WX- /diagnostics:column /sdl /Od /Oy- /D _CRT_SECURE_NO_WARNINGS /D _MBCS /Gm- /EHsc /RTC1 /MDd /GS /fp:precise /permissive- /Zc:wchar_t /Zc:forScope /Zc:inline /Fo"DEBUG\\" /Fd"DEBUG\COMMON.PDB" /Gd /TP /analyze- /FC H:\DESKTOP\TECHNOLOGIES\COMMON\ASSETS.CPP
^H:\DESKTOP\TECHNOLOGIES\COMMON\CAMERA.CPP
/c /ZI /JMC /nologo /W3 /WX- /diagnostics:column /sdl /Od /Oy- /D _CRT_SECURE_NO_WARNINGS /D _MBCS /Gm- /EHsc /RTC1 /MDd /GS /fp:precise /permissive- /Zc:wchar_t /Zc:forScope /Zc:inline /Fo"DEBUG\\" /Fd"DEBUG\COMMON.PDB" /Gd /TP /analyze- /FC H:\DESKTOP\TECHNOLOGIES\COMMON\CAMERA.CPP
^H:\DESKTOP\TECHNOLOGIES\COMMON\GAMETIMER.CPP
/c /ZI /JMC /nologo /W3 /WX- /diagnostics:column /sdl /Od /Oy- /D _CRT_SECURE_NO_WARNINGS /D _MBCS /Gm- /EHsc /RTC1 /MDd /GS /fp:precise /permissive- /Zc:wchar_t /Zc:forScope /Zc:inline /Fo"DEBUG\\" /Fd"DEBUG\COMMON.PDB" /Gd /TP /analyze- /FC H:\DESKTOP\TECHNOLOGIES\COMMON\GAMETIMER.CPP
^H:\DESKTOP\TECHNOLOGIES\COMMON\KEYBOARD.CPP
/c /ZI /JMC /nologo /W3 /WX- /diagnostics:column /sdl /Od /Oy- /D _CRT_SECURE_NO_WARNINGS /D _MBCS /Gm- /EHsc /RTC1 /MDd /GS /fp:precise /permissive- /Zc:wchar_t /Zc:forScope /Zc:inline /Fo"DEBUG\\" /Fd"DEBUG\COMMON.PDB" /Gd /TP /analyze- /FC H:\DESKTOP\TECHNOLOGIES\COMMON\KEYBOARD.CPP
^H:\DESKTOP\TECHNOLOGIES\COMMON\MATHS.CPP
/c /ZI /JMC /nologo /W3 /WX- /diagnostics:column /sdl /Od /Oy- /D _CRT_SECURE_NO_WARNINGS /D _MBCS /Gm- /EHsc /RTC1 /MDd /GS /fp:precise /permissive- /Zc:wchar_t /Zc:forScope /Zc:inline /Fo"DEBUG\\" /Fd"DEBUG\COMMON.PDB" /Gd /TP /analyze- /FC H:\DESKTOP\TECHNOLOGIES\COMMON\MATHS.CPP
^H:\DESKTOP\TECHNOLOGIES\COMMON\MATRIX2.CPP
/c /ZI /JMC /nologo /W3 /WX- /diagnostics:column /sdl /Od /Oy- /D _CRT_SECURE_NO_WARNINGS /D _MBCS /Gm- /EHsc /RTC1 /MDd /GS /fp:precise /permissive- /Zc:wchar_t /Zc:forScope /Zc:inline /Fo"DEBUG\\" /Fd"DEBUG\COMMON.PDB" /Gd /TP /analyze- /FC H:\DESKTOP\TECHNOLOGIES\COMMON\MATRIX2.CPP
^H:\DESKTOP\TECHNOLOGIES\COMMON\MATRIX3.CPP
/c /ZI /JMC /nologo /W3 /WX- /diagnostics:column /sdl /Od /Oy- /D _CRT_SECURE_NO_WARNINGS /D _MBCS /Gm- /EHsc /RTC1 /MDd /GS /fp:precise /permissive- /Zc:wchar_t /Zc:forScope /Zc:inline /Fo"DEBUG\\" /Fd"DEBUG\COMMON.PDB" /Gd /TP /analyze- /FC H:\DESKTOP\TECHNOLOGIES\COMMON\MATRIX3.CPP
^H:\DESKTOP\TECHNOLOGIES\COMMON\MATRIX4.CPP
/c /ZI /JMC /nologo /W3 /WX- /diagnostics:column /sdl /Od /Oy- /D _CRT_SECURE_NO_WARNINGS /D _MBCS /Gm- /EHsc /RTC1 /MDd /GS /fp:precise /permissive- /Zc:wchar_t /Zc:forScope /Zc:inline /Fo"DEBUG\\" /Fd"DEBUG\COMMON.PDB" /Gd /TP /analyze- /FC H:\DESKTOP\TECHNOLOGIES\COMMON\MATRIX4.CPP
^H:\DESKTOP\TECHNOLOGIES\COMMON\MESHGEOMETRY.CPP
/c /ZI /JMC /nologo /W3 /WX- /diagnostics:column /sdl /Od /Oy- /D _CRT_SECURE_NO_WARNINGS /D _MBCS /Gm- /EHsc /RTC1 /MDd /GS /fp:precise /permissive- /Zc:wchar_t /Zc:forScope /Zc:inline /Fo"DEBUG\\" /Fd"DEBUG\COMMON.PDB" /Gd /TP /analyze- /FC H:\DESKTOP\TECHNOLOGIES\COMMON\MESHGEOMETRY.CPP
^H:\DESKTOP\TECHNOLOGIES\COMMON\MOUSE.CPP
/c /ZI /JMC /nologo /W3 /WX- /diagnostics:column /sdl /Od /Oy- /D _CRT_SECURE_NO_WARNINGS /D _MBCS /Gm- /EHsc /RTC1 /MDd /GS /fp:precise /permissive- /Zc:wchar_t /Zc:forScope /Zc:inline /Fo"DEBUG\\" /Fd"DEBUG\COMMON.PDB" /Gd /TP /analyze- /FC H:\DESKTOP\TECHNOLOGIES\COMMON\MOUSE.CPP
^H:\DESKTOP\TECHNOLOGIES\COMMON\PLANE.CPP
/c /ZI /JMC /nologo /W3 /WX- /diagnostics:column /sdl /Od /Oy- /D _CRT_SECURE_NO_WARNINGS /D _MBCS /Gm- /EHsc /RTC1 /MDd /GS /fp:precise /permissive- /Zc:wchar_t /Zc:forScope /Zc:inline /Fo"DEBUG\\" /Fd"DEBUG\COMMON.PDB" /Gd /TP /analyze- /FC H:\DESKTOP\TECHNOLOGIES\COMMON\PLANE.CPP
^H:\DESKTOP\TECHNOLOGIES\COMMON\QUATERNION.CPP
/c /ZI /JMC /nologo /W3 /WX- /diagnostics:column /sdl /Od /Oy- /D _CRT_SECURE_NO_WARNINGS /D _MBCS /Gm- /EHsc /RTC1 /MDd /GS /fp:precise /permissive- /Zc:wchar_t /Zc:forScope /Zc:inline /Fo"DEBUG\\" /Fd"DEBUG\COMMON.PDB" /Gd /TP /analyze- /FC H:\DESKTOP\TECHNOLOGIES\COMMON\QUATERNION.CPP
^H:\DESKTOP\TECHNOLOGIES\COMMON\RENDERERBASE.CPP
/c /ZI /JMC /nologo /W3 /WX- /diagnostics:column /sdl /Od /Oy- /D _CRT_SECURE_NO_WARNINGS /D _MBCS /Gm- /EHsc /RTC1 /MDd /GS /fp:precise /permissive- /Zc:wchar_t /Zc:forScope /Zc:inline /Fo"DEBUG\\" /Fd"DEBUG\COMMON.PDB" /Gd /TP /analyze- /FC H:\DESKTOP\TECHNOLOGIES\COMMON\RENDERERBASE.CPP
^H:\DESKTOP\TECHNOLOGIES\COMMON\SHADERBASE.CPP
/c /ZI /JMC /nologo /W3 /WX- /diagnostics:column /sdl /Od /Oy- /D _CRT_SECURE_NO_WARNINGS /D _MBCS /Gm- /EHsc /RTC1 /MDd /GS /fp:precise /permissive- /Zc:wchar_t /Zc:forScope /Zc:inline /Fo"DEBUG\\" /Fd"DEBUG\COMMON.PDB" /Gd /TP /analyze- /FC H:\DESKTOP\TECHNOLOGIES\COMMON\SHADERBASE.CPP
^H:\DESKTOP\TECHNOLOGIES\COMMON\SIMPLEFONT.CPP
/c /ZI /JMC /nologo /W3 /WX- /diagnostics:column /sdl /Od /Oy- /D _CRT_SECURE_NO_WARNINGS /D _MBCS /Gm- /EHsc /RTC1 /MDd /GS /fp:precise /permissive- /Zc:wchar_t /Zc:forScope /Zc:inline /Fo"DEBUG\\" /Fd"DEBUG\COMMON.PDB" /Gd /TP /analyze- /FC H:\DESKTOP\TECHNOLOGIES\COMMON\SIMPLEFONT.CPP
^H:\DESKTOP\TECHNOLOGIES\COMMON\TEXTUREBASE.CPP
/c /ZI /JMC /nologo /W3 /WX- /diagnostics:column /sdl /Od /Oy- /D _CRT_SECURE_NO_WARNINGS /D _MBCS /Gm- /EHsc /RTC1 /MDd /GS /fp:precise /permissive- /Zc:wchar_t /Zc:forScope /Zc:inline /Fo"DEBUG\\" /Fd"DEBUG\COMMON.PDB" /Gd /TP /analyze- /FC H:\DESKTOP\TECHNOLOGIES\COMMON\TEXTUREBASE.CPP
^H:\DESKTOP\TECHNOLOGIES\COMMON\TEXTURELOADER.CPP
/c /ZI /JMC /nologo /W3 /WX- /diagnostics:column /sdl /Od /Oy- /D _CRT_SECURE_NO_WARNINGS /D _MBCS /Gm- /EHsc /RTC1 /MDd /GS /fp:precise /permissive- /Zc:wchar_t /Zc:forScope /Zc:inline /Fo"DEBUG\\" /Fd"DEBUG\COMMON.PDB" /Gd /TP /analyze- /FC H:\DESKTOP\TECHNOLOGIES\COMMON\TEXTURELOADER.CPP
^H:\DESKTOP\TECHNOLOGIES\COMMON\TEXTUREWRITER.CPP
/c /ZI /JMC /nologo /W3 /WX- /diagnostics:column /sdl /Od /Oy- /D _CRT_SECURE_NO_WARNINGS /D _MBCS /Gm- /EHsc /RTC1 /MDd /GS /fp:precise /permissive- /Zc:wchar_t /Zc:forScope /Zc:inline /Fo"DEBUG\\" /Fd"DEBUG\COMMON.PDB" /Gd /TP /analyze- /FC H:\DESKTOP\TECHNOLOGIES\COMMON\TEXTUREWRITER.CPP
^H:\DESKTOP\TECHNOLOGIES\COMMON\VECTOR2.CPP
/c /ZI /JMC /nologo /W3 /WX- /diagnostics:column /sdl /Od /Oy- /D _CRT_SECURE_NO_WARNINGS /D _MBCS /Gm- /EHsc /RTC1 /MDd /GS /fp:precise /permissive- /Zc:wchar_t /Zc:forScope /Zc:inline /Fo"DEBUG\\" /Fd"DEBUG\COMMON.PDB" /Gd /TP /analyze- /FC H:\DESKTOP\TECHNOLOGIES\COMMON\VECTOR2.CPP
^H:\DESKTOP\TECHNOLOGIES\COMMON\VECTOR3.CPP
/c /ZI /JMC /nologo /W3 /WX- /diagnostics:column /sdl /Od /Oy- /D _CRT_SECURE_NO_WARNINGS /D _MBCS /Gm- /EHsc /RTC1 /MDd /GS /fp:precise /permissive- /Zc:wchar_t /Zc:forScope /Zc:inline /Fo"DEBUG\\" /Fd"DEBUG\COMMON.PDB" /Gd /TP /analyze- /FC H:\DESKTOP\TECHNOLOGIES\COMMON\VECTOR3.CPP
^H:\DESKTOP\TECHNOLOGIES\COMMON\VECTOR4.CPP
/c /ZI /JMC /nologo /W3 /WX- /diagnostics:column /sdl /Od /Oy- /D _CRT_SECURE_NO_WARNINGS /D _MBCS /Gm- /EHsc /RTC1 /MDd /GS /fp:precise /permissive- /Zc:wchar_t /Zc:forScope /Zc:inline /Fo"DEBUG\\" /Fd"DEBUG\COMMON.PDB" /Gd /TP /analyze- /FC H:\DESKTOP\TECHNOLOGIES\COMMON\VECTOR4.CPP
^H:\DESKTOP\TECHNOLOGIES\COMMON\WIN32KEYBOARD.CPP
/c /ZI /JMC /nologo /W3 /WX- /diagnostics:column /sdl /Od /Oy- /D _CRT_SECURE_NO_WARNINGS /D _MBCS /Gm- /EHsc /RTC1 /MDd /GS /fp:precise /permissive- /Zc:wchar_t /Zc:forScope /Zc:inline /Fo"DEBUG\\" /Fd"DEBUG\COMMON.PDB" /Gd /TP /analyze- /FC H:\DESKTOP\TECHNOLOGIES\COMMON\WIN32KEYBOARD.CPP
^H:\DESKTOP\TECHNOLOGIES\COMMON\WIN32MOUSE.CPP
/c /ZI /JMC /nologo /W3 /WX- /diagnostics:column /sdl /Od /Oy- /D _CRT_SECURE_NO_WARNINGS /D _MBCS /Gm- /EHsc /RTC1 /MDd /GS /fp:precise /permissive- /Zc:wchar_t /Zc:forScope /Zc:inline /Fo"DEBUG\\" /Fd"DEBUG\COMMON.PDB" /Gd /TP /analyze- /FC H:\DESKTOP\TECHNOLOGIES\COMMON\WIN32MOUSE.CPP
^H:\DESKTOP\TECHNOLOGIES\COMMON\WIN32WINDOW.CPP
/c /ZI /JMC /nologo /W3 /WX- /diagnostics:column /sdl /Od /Oy- /D _CRT_SECURE_NO_WARNINGS /D _MBCS /Gm- /EHsc /RTC1 /MDd /GS /fp:precise /permissive- /Zc:wchar_t /Zc:forScope /Zc:inline /Fo"DEBUG\\" /Fd"DEBUG\COMMON.PDB" /Gd /TP /analyze- /FC H:\DESKTOP\TECHNOLOGIES\COMMON\WIN32WINDOW.CPP
^H:\DESKTOP\TECHNOLOGIES\COMMON\WINDOW.CPP
/c /ZI /JMC /nologo /W3 /WX- /diagnostics:column /sdl /Od /Oy- /D _CRT_SECURE_NO_WARNINGS /D _MBCS /Gm- /EHsc /RTC1 /MDd /GS /fp:precise /permissive- /Zc:wchar_t /Zc:forScope /Zc:inline /Fo"DEBUG\\" /Fd"DEBUG\COMMON.PDB" /Gd /TP /analyze- /FC H:\DESKTOP\TECHNOLOGIES\COMMON\WINDOW.CPP
^D:\LAOSONG\HOMEWORK\ADVANCED-GAME-TECHNOLOGIES\COMMON\ASSETS.CPP
/c /ZI /JMC /nologo /W3 /WX- /diagnostics:column /sdl /Od /Oy- /D _CRT_SECURE_NO_WARNINGS /D _MBCS /Gm- /EHsc /RTC1 /MDd /GS /fp:precise /permissive- /Zc:wchar_t /Zc:forScope /Zc:inline /Fo"DEBUG\\" /Fd"DEBUG\COMMON.PDB" /Gd /TP /analyze- /FC D:\LAOSONG\HOMEWORK\ADVANCED-GAME-TECHNOLOGIES\COMMON\ASSETS.CPP
^D:\LAOSONG\HOMEWORK\ADVANCED-GAME-TECHNOLOGIES\COMMON\CAMERA.CPP
/c /ZI /JMC /nologo /W3 /WX- /diagnostics:column /sdl /Od /Oy- /D _CRT_SECURE_NO_WARNINGS /D _MBCS /Gm- /EHsc /RTC1 /MDd /GS /fp:precise /permissive- /Zc:wchar_t /Zc:forScope /Zc:inline /Fo"DEBUG\\" /Fd"DEBUG\COMMON.PDB" /Gd /TP /analyze- /FC D:\LAOSONG\HOMEWORK\ADVANCED-GAME-TECHNOLOGIES\COMMON\CAMERA.CPP
^D:\LAOSONG\HOMEWORK\ADVANCED-GAME-TECHNOLOGIES\COMMON\GAMETIMER.CPP
/c /ZI /JMC /nologo /W3 /WX- /diagnostics:column /sdl /Od /Oy- /D _CRT_SECURE_NO_WARNINGS /D _MBCS /Gm- /EHsc /RTC1 /MDd /GS /fp:precise /permissive- /Zc:wchar_t /Zc:forScope /Zc:inline /Fo"DEBUG\\" /Fd"DEBUG\COMMON.PDB" /Gd /TP /analyze- /FC D:\LAOSONG\HOMEWORK\ADVANCED-GAME-TECHNOLOGIES\COMMON\GAMETIMER.CPP
^D:\LAOSONG\HOMEWORK\ADVANCED-GAME-TECHNOLOGIES\COMMON\KEYBOARD.CPP
/c /ZI /JMC /nologo /W3 /WX- /diagnostics:column /sdl /Od /Oy- /D _CRT_SECURE_NO_WARNINGS /D _MBCS /Gm- /EHsc /RTC1 /MDd /GS /fp:precise /permissive- /Zc:wchar_t /Zc:forScope /Zc:inline /Fo"DEBUG\\" /Fd"DEBUG\COMMON.PDB" /Gd /TP /analyze- /FC D:\LAOSONG\HOMEWORK\ADVANCED-GAME-TECHNOLOGIES\COMMON\KEYBOARD.CPP
^D:\LAOSONG\HOMEWORK\ADVANCED-GAME-TECHNOLOGIES\COMMON\MATHS.CPP
/c /ZI /JMC /nologo /W3 /WX- /diagnostics:column /sdl /Od /Oy- /D _CRT_SECURE_NO_WARNINGS /D _MBCS /Gm- /EHsc /RTC1 /MDd /GS /fp:precise /permissive- /Zc:wchar_t /Zc:forScope /Zc:inline /Fo"DEBUG\\" /Fd"DEBUG\COMMON.PDB" /Gd /TP /analyze- /FC D:\LAOSONG\HOMEWORK\ADVANCED-GAME-TECHNOLOGIES\COMMON\MATHS.CPP
^D:\LAOSONG\HOMEWORK\ADVANCED-GAME-TECHNOLOGIES\COMMON\MATRIX2.CPP
/c /ZI /JMC /nologo /W3 /WX- /diagnostics:column /sdl /Od /Oy- /D _CRT_SECURE_NO_WARNINGS /D _MBCS /Gm- /EHsc /RTC1 /MDd /GS /fp:precise /permissive- /Zc:wchar_t /Zc:forScope /Zc:inline /Fo"DEBUG\\" /Fd"DEBUG\COMMON.PDB" /Gd /TP /analyze- /FC D:\LAOSONG\HOMEWORK\ADVANCED-GAME-TECHNOLOGIES\COMMON\MATRIX2.CPP
^D:\LAOSONG\HOMEWORK\ADVANCED-GAME-TECHNOLOGIES\COMMON\MATRIX3.CPP
/c /ZI /JMC /nologo /W3 /WX- /diagnostics:column /sdl /Od /Oy- /D _CRT_SECURE_NO_WARNINGS /D _MBCS /Gm- /EHsc /RTC1 /MDd /GS /fp:precise /permissive- /Zc:wchar_t /Zc:forScope /Zc:inline /Fo"DEBUG\\" /Fd"DEBUG\COMMON.PDB" /Gd /TP /analyze- /FC D:\LAOSONG\HOMEWORK\ADVANCED-GAME-TECHNOLOGIES\COMMON\MATRIX3.CPP
^D:\LAOSONG\HOMEWORK\ADVANCED-GAME-TECHNOLOGIES\COMMON\MATRIX4.CPP
/c /ZI /JMC /nologo /W3 /WX- /diagnostics:column /sdl /Od /Oy- /D _CRT_SECURE_NO_WARNINGS /D _MBCS /Gm- /EHsc /RTC1 /MDd /GS /fp:precise /permissive- /Zc:wchar_t /Zc:forScope /Zc:inline /Fo"DEBUG\\" /Fd"DEBUG\COMMON.PDB" /Gd /TP /analyze- /FC D:\LAOSONG\HOMEWORK\ADVANCED-GAME-TECHNOLOGIES\COMMON\MATRIX4.CPP
^D:\LAOSONG\HOMEWORK\ADVANCED-GAME-TECHNOLOGIES\COMMON\MESHGEOMETRY.CPP
/c /ZI /JMC /nologo /W3 /WX- /diagnostics:column /sdl /Od /Oy- /D _CRT_SECURE_NO_WARNINGS /D _MBCS /Gm- /EHsc /RTC1 /MDd /GS /fp:precise /permissive- /Zc:wchar_t /Zc:forScope /Zc:inline /Fo"DEBUG\\" /Fd"DEBUG\COMMON.PDB" /Gd /TP /analyze- /FC D:\LAOSONG\HOMEWORK\ADVANCED-GAME-TECHNOLOGIES\COMMON\MESHGEOMETRY.CPP
^D:\LAOSONG\HOMEWORK\ADVANCED-GAME-TECHNOLOGIES\COMMON\MOUSE.CPP
/c /ZI /JMC /nologo /W3 /WX- /diagnostics:column /sdl /Od /Oy- /D _CRT_SECURE_NO_WARNINGS /D _MBCS /Gm- /EHsc /RTC1 /MDd /GS /fp:precise /permissive- /Zc:wchar_t /Zc:forScope /Zc:inline /Fo"DEBUG\\" /Fd"DEBUG\COMMON.PDB" /Gd /TP /analyze- /FC D:\LAOSONG\HOMEWORK\ADVANCED-GAME-TECHNOLOGIES\COMMON\MOUSE.CPP
^D:\LAOSONG\HOMEWORK\ADVANCED-GAME-TECHNOLOGIES\COMMON\PLANE.CPP
/c /ZI /JMC /nologo /W3 /WX- /diagnostics:column /sdl /Od /Oy- /D _CRT_SECURE_NO_WARNINGS /D _MBCS /Gm- /EHsc /RTC1 /MDd /GS /fp:precise /permissive- /Zc:wchar_t /Zc:forScope /Zc:inline /Fo"DEBUG\\" /Fd"DEBUG\COMMON.PDB" /Gd /TP /analyze- /FC D:\LAOSONG\HOMEWORK\ADVANCED-GAME-TECHNOLOGIES\COMMON\PLANE.CPP
^D:\LAOSONG\HOMEWORK\ADVANCED-GAME-TECHNOLOGIES\COMMON\QUATERNION.CPP
/c /ZI /JMC /nologo /W3 /WX- /diagnostics:column /sdl /Od /Oy- /D _CRT_SECURE_NO_WARNINGS /D _MBCS /Gm- /EHsc /RTC1 /MDd /GS /fp:precise /permissive- /Zc:wchar_t /Zc:forScope /Zc:inline /Fo"DEBUG\\" /Fd"DEBUG\COMMON.PDB" /Gd /TP /analyze- /FC D:\LAOSONG\HOMEWORK\ADVANCED-GAME-TECHNOLOGIES\COMMON\QUATERNION.CPP
^D:\LAOSONG\HOMEWORK\ADVANCED-GAME-TECHNOLOGIES\COMMON\RENDERERBASE.CPP
/c /ZI /JMC /nologo /W3 /WX- /diagnostics:column /sdl /Od /Oy- /D _CRT_SECURE_NO_WARNINGS /D _MBCS /Gm- /EHsc /RTC1 /MDd /GS /fp:precise /permissive- /Zc:wchar_t /Zc:forScope /Zc:inline /Fo"DEBUG\\" /Fd"DEBUG\COMMON.PDB" /Gd /TP /analyze- /FC D:\LAOSONG\HOMEWORK\ADVANCED-GAME-TECHNOLOGIES\COMMON\RENDERERBASE.CPP
^D:\LAOSONG\HOMEWORK\ADVANCED-GAME-TECHNOLOGIES\COMMON\SHADERBASE.CPP
/c /ZI /JMC /nologo /W3 /WX- /diagnostics:column /sdl /Od /Oy- /D _CRT_SECURE_NO_WARNINGS /D _MBCS /Gm- /EHsc /RTC1 /MDd /GS /fp:precise /permissive- /Zc:wchar_t /Zc:forScope /Zc:inline /Fo"DEBUG\\" /Fd"DEBUG\COMMON.PDB" /Gd /TP /analyze- /FC D:\LAOSONG\HOMEWORK\ADVANCED-GAME-TECHNOLOGIES\COMMON\SHADERBASE.CPP
^D:\LAOSONG\HOMEWORK\ADVANCED-GAME-TECHNOLOGIES\COMMON\SIMPLEFONT.CPP
/c /ZI /JMC /nologo /W3 /WX- /diagnostics:column /sdl /Od /Oy- /D _CRT_SECURE_NO_WARNINGS /D _MBCS /Gm- /EHsc /RTC1 /MDd /GS /fp:precise /permissive- /Zc:wchar_t /Zc:forScope /Zc:inline /Fo"DEBUG\\" /Fd"DEBUG\COMMON.PDB" /Gd /TP /analyze- /FC D:\LAOSONG\HOMEWORK\ADVANCED-GAME-TECHNOLOGIES\COMMON\SIMPLEFONT.CPP
^D:\LAOSONG\HOMEWORK\ADVANCED-GAME-TECHNOLOGIES\COMMON\TEXTUREBASE.CPP
/c /ZI /JMC /nologo /W3 /WX- /diagnostics:column /sdl /Od /Oy- /D _CRT_SECURE_NO_WARNINGS /D _MBCS /Gm- /EHsc /RTC1 /MDd /GS /fp:precise /permissive- /Zc:wchar_t /Zc:forScope /Zc:inline /Fo"DEBUG\\" /Fd"DEBUG\COMMON.PDB" /Gd /TP /analyze- /FC D:\LAOSONG\HOMEWORK\ADVANCED-GAME-TECHNOLOGIES\COMMON\TEXTUREBASE.CPP
^D:\LAOSONG\HOMEWORK\ADVANCED-GAME-TECHNOLOGIES\COMMON\TEXTURELOADER.CPP
/c /ZI /JMC /nologo /W3 /WX- /diagnostics:column /sdl /Od /Oy- /D _CRT_SECURE_NO_WARNINGS /D _MBCS /Gm- /EHsc /RTC1 /MDd /GS /fp:precise /permissive- /Zc:wchar_t /Zc:forScope /Zc:inline /Fo"DEBUG\\" /Fd"DEBUG\COMMON.PDB" /Gd /TP /analyze- /FC D:\LAOSONG\HOMEWORK\ADVANCED-GAME-TECHNOLOGIES\COMMON\TEXTURELOADER.CPP
^D:\LAOSONG\HOMEWORK\ADVANCED-GAME-TECHNOLOGIES\COMMON\TEXTUREWRITER.CPP
/c /ZI /JMC /nologo /W3 /WX- /diagnostics:column /sdl /Od /Oy- /D _CRT_SECURE_NO_WARNINGS /D _MBCS /Gm- /EHsc /RTC1 /MDd /GS /fp:precise /permissive- /Zc:wchar_t /Zc:forScope /Zc:inline /Fo"DEBUG\\" /Fd"DEBUG\COMMON.PDB" /Gd /TP /analyze- /FC D:\LAOSONG\HOMEWORK\ADVANCED-GAME-TECHNOLOGIES\COMMON\TEXTUREWRITER.CPP
^D:\LAOSONG\HOMEWORK\ADVANCED-GAME-TECHNOLOGIES\COMMON\VECTOR2.CPP
/c /ZI /JMC /nologo /W3 /WX- /diagnostics:column /sdl /Od /Oy- /D _CRT_SECURE_NO_WARNINGS /D _MBCS /Gm- /EHsc /RTC1 /MDd /GS /fp:precise /permissive- /Zc:wchar_t /Zc:forScope /Zc:inline /Fo"DEBUG\\" /Fd"DEBUG\COMMON.PDB" /Gd /TP /analyze- /FC D:\LAOSONG\HOMEWORK\ADVANCED-GAME-TECHNOLOGIES\COMMON\VECTOR2.CPP
^D:\LAOSONG\HOMEWORK\ADVANCED-GAME-TECHNOLOGIES\COMMON\VECTOR3.CPP
/c /ZI /JMC /nologo /W3 /WX- /diagnostics:column /sdl /Od /Oy- /D _CRT_SECURE_NO_WARNINGS /D _MBCS /Gm- /EHsc /RTC1 /MDd /GS /fp:precise /permissive- /Zc:wchar_t /Zc:forScope /Zc:inline /Fo"DEBUG\\" /Fd"DEBUG\COMMON.PDB" /Gd /TP /analyze- /FC D:\LAOSONG\HOMEWORK\ADVANCED-GAME-TECHNOLOGIES\COMMON\VECTOR3.CPP
^D:\LAOSONG\HOMEWORK\ADVANCED-GAME-TECHNOLOGIES\COMMON\VECTOR4.CPP
/c /ZI /JMC /nologo /W3 /WX- /diagnostics:column /sdl /Od /Oy- /D _CRT_SECURE_NO_WARNINGS /D _MBCS /Gm- /EHsc /RTC1 /MDd /GS /fp:precise /permissive- /Zc:wchar_t /Zc:forScope /Zc:inline /Fo"DEBUG\\" /Fd"DEBUG\COMMON.PDB" /Gd /TP /analyze- /FC D:\LAOSONG\HOMEWORK\ADVANCED-GAME-TECHNOLOGIES\COMMON\VECTOR4.CPP
^D:\LAOSONG\HOMEWORK\ADVANCED-GAME-TECHNOLOGIES\COMMON\WIN32KEYBOARD.CPP
/c /ZI /JMC /nologo /W3 /WX- /diagnostics:column /sdl /Od /Oy- /D _CRT_SECURE_NO_WARNINGS /D _MBCS /Gm- /EHsc /RTC1 /MDd /GS /fp:precise /permissive- /Zc:wchar_t /Zc:forScope /Zc:inline /Fo"DEBUG\\" /Fd"DEBUG\COMMON.PDB" /Gd /TP /analyze- /FC D:\LAOSONG\HOMEWORK\ADVANCED-GAME-TECHNOLOGIES\COMMON\WIN32KEYBOARD.CPP
^D:\LAOSONG\HOMEWORK\ADVANCED-GAME-TECHNOLOGIES\COMMON\WIN32MOUSE.CPP
/c /ZI /JMC /nologo /W3 /WX- /diagnostics:column /sdl /Od /Oy- /D _CRT_SECURE_NO_WARNINGS /D _MBCS /Gm- /EHsc /RTC1 /MDd /GS /fp:precise /permissive- /Zc:wchar_t /Zc:forScope /Zc:inline /Fo"DEBUG\\" /Fd"DEBUG\COMMON.PDB" /Gd /TP /analyze- /FC D:\LAOSONG\HOMEWORK\ADVANCED-GAME-TECHNOLOGIES\COMMON\WIN32MOUSE.CPP
^D:\LAOSONG\HOMEWORK\ADVANCED-GAME-TECHNOLOGIES\COMMON\WIN32WINDOW.CPP
/c /ZI /JMC /nologo /W3 /WX- /diagnostics:column /sdl /Od /Oy- /D _CRT_SECURE_NO_WARNINGS /D _MBCS /Gm- /EHsc /RTC1 /MDd /GS /fp:precise /permissive- /Zc:wchar_t /Zc:forScope /Zc:inline /Fo"DEBUG\\" /Fd"DEBUG\COMMON.PDB" /Gd /TP /analyze- /FC D:\LAOSONG\HOMEWORK\ADVANCED-GAME-TECHNOLOGIES\COMMON\WIN32WINDOW.CPP
^D:\LAOSONG\HOMEWORK\ADVANCED-GAME-TECHNOLOGIES\COMMON\WINDOW.CPP
/c /ZI /JMC /nologo /W3 /WX- /diagnostics:column /sdl /Od /Oy- /D _CRT_SECURE_NO_WARNINGS /D _MBCS /Gm- /EHsc /RTC1 /MDd /GS /fp:precise /permissive- /Zc:wchar_t /Zc:forScope /Zc:inline /Fo"DEBUG\\" /Fd"DEBUG\COMMON.PDB" /Gd /TP /analyze- /FC D:\LAOSONG\HOMEWORK\ADVANCED-GAME-TECHNOLOGIES\COMMON\WINDOW.CPP
