^D:\LAOSONG\HOMEWORK\ADVANCED-GAME-TECHNOLOGIES\CSC8503\GAMETECH\APPLEOBJECT.CPP|D:\LAOSONG\HOMEWORK\ADVANCED-GAME-TECHNOLOGIES\CSC8503\GAMETECH\DESTINATIONOBJECT.CPP|D:\LAOSONG\HOMEWORK\ADVANCED-GAME-TECHNOLOGIES\CSC8503\GAMETECH\ENEMYOBJECT.CPP|D:\LAOSONG\HOMEWORK\ADVANCED-GAME-TECHNOLOGIES\CSC8503\GAMETECH\GAMETECHRENDERER.CPP|D:\LAOSONG\HOMEWORK\ADVANCED-GAME-TECHNOLOGIES\CSC8503\GAMETECH\GOOSEPLAYER.CPP|D:\LAOSONG\HOMEWORK\ADVANCED-GAME-TECHNOLOGIES\CSC8503\GAMETECH\MAIN.CPP|D:\LAOSONG\HOMEWORK\ADVANCED-GAME-TECHNOLOGIES\CSC8503\GAMETECH\MAZEDATA.CPP|D:\LAOSONG\HOMEWORK\ADVANCED-GAME-TECHNOLOGIES\CSC8503\GAMETECH\NETWORKEDGAME.CPP|D:\LAOSONG\HOMEWORK\ADVANCED-GAME-TECHNOLOGIES\CSC8503\GAMETECH\NETWORKPLAYER.CPP|D:\LAOSONG\HOMEWORK\ADVANCED-GAME-TECHNOLOGIES\CSC8503\GAMETECH\POSITION.CPP|D:\LAOSONG\HOMEWORK\ADVANCED-GAME-TECHNOLOGIES\CSC8503\GAMETECH\RANDOMQUEUE.CPP|D:\LAOSONG\HOMEWORK\ADVANCED-GAME-TECHNOLOGIES\CSC8503\GAMETECH\TUTORIALGAME.CPP
D:\LAOSONG\HOMEWORK\ADVANCED-GAME-TECHNOLOGIES\CSC8503\GAMETECH\DEBUG\VC142.PDB
D:\LAOSONG\HOMEWORK\ADVANCED-GAME-TECHNOLOGIES\CSC8503\GAMETECH\DEBUG\VC142.IDB
D:\LAOSONG\HOMEWORK\ADVANCED-GAME-TECHNOLOGIES\CSC8503\GAMETECH\DEBUG\TUTORIALGAME.OBJ
D:\LAOSONG\HOMEWORK\ADVANCED-GAME-TECHNOLOGIES\CSC8503\GAMETECH\DEBUG\RANDOMQUEUE.OBJ
D:\LAOSONG\HOMEWORK\ADVANCED-GAME-TECHNOLOGIES\CSC8503\GAMETECH\DEBUG\POSITION.OBJ
D:\LAOSONG\HOMEWORK\ADVANCED-GAME-TECHNOLOGIES\CSC8503\GAMETECH\DEBUG\GOOSEPLAYER.OBJ
D:\LAOSONG\HOMEWORK\ADVANCED-GAME-TECHNOLOGIES\CSC8503\GAMETECH\DEBUG\NETWORKPLAYER.OBJ
D:\LAOSONG\HOMEWORK\ADVANCED-GAME-TECHNOLOGIES\CSC8503\GAMETECH\DEBUG\NETWORKEDGAME.OBJ
D:\LAOSONG\HOMEWORK\ADVANCED-GAME-TECHNOLOGIES\CSC8503\GAMETECH\DEBUG\MAZEDATA.OBJ
D:\LAOSONG\HOMEWORK\ADVANCED-GAME-TECHNOLOGIES\CSC8503\GAMETECH\DEBUG\MAIN.OBJ
D:\LAOSONG\HOMEWORK\ADVANCED-GAME-TECHNOLOGIES\CSC8503\GAMETECH\DEBUG\GAMETECHRENDERER.OBJ
D:\LAOSONG\HOMEWORK\ADVANCED-GAME-TECHNOLOGIES\CSC8503\GAMETECH\DEBUG\ENEMYOBJECT.OBJ
D:\LAOSONG\HOMEWORK\ADVANCED-GAME-TECHNOLOGIES\CSC8503\GAMETECH\DEBUG\DESTINATIONOBJECT.OBJ
D:\LAOSONG\HOMEWORK\ADVANCED-GAME-TECHNOLOGIES\CSC8503\GAMETECH\DEBUG\APPLEOBJECT.OBJ
^D:\LAOSONG\HOMEWORK\ADVANCED-GAME-TECHNOLOGIES\CSC8503\GAMETECH\MAZEDATA.CPP
D:\LAOSONG\HOMEWORK\ADVANCED-GAME-TECHNOLOGIES\CSC8503\GAMETECH\DEBUG\VC142.PDB
^D:\LAOSONG\HOMEWORK\ADVANCED-GAME-TECHNOLOGIES\CSC8503\GAMETECH\POSITION.CPP
D:\LAOSONG\HOMEWORK\ADVANCED-GAME-TECHNOLOGIES\CSC8503\GAMETECH\DEBUG\VC142.PDB
^D:\LAOSONG\HOMEWORK\ADVANCED-GAME-TECHNOLOGIES\CSC8503\GAMETECH\RANDOMQUEUE.CPP
D:\LAOSONG\HOMEWORK\ADVANCED-GAME-TECHNOLOGIES\CSC8503\GAMETECH\DEBUG\VC142.PDB
^D:\LAOSONG\HOMEWORK\ADVANCED-GAME-TECHNOLOGIES\CSC8503\GAMETECH\APPLEOBJECT.CPP|D:\LAOSONG\HOMEWORK\ADVANCED-GAME-TECHNOLOGIES\CSC8503\GAMETECH\DESTINATIONOBJECT.CPP|D:\LAOSONG\HOMEWORK\ADVANCED-GAME-TECHNOLOGIES\CSC8503\GAMETECH\ENEMYOBJECT.CPP|D:\LAOSONG\HOMEWORK\ADVANCED-GAME-TECHNOLOGIES\CSC8503\GAMETECH\GAMETECHRENDERER.CPP|D:\LAOSONG\HOMEWORK\ADVANCED-GAME-TECHNOLOGIES\CSC8503\GAMETECH\GOOSEPLAYER.CPP|D:\LAOSONG\HOMEWORK\ADVANCED-GAME-TECHNOLOGIES\CSC8503\GAMETECH\MAIN.CPP|D:\LAOSONG\HOMEWORK\ADVANCED-GAME-TECHNOLOGIES\CSC8503\GAMETECH\NETWORKEDGAME.CPP|D:\LAOSONG\HOMEWORK\ADVANCED-GAME-TECHNOLOGIES\CSC8503\GAMETECH\NETWORKPLAYER.CPP|D:\LAOSONG\HOMEWORK\ADVANCED-GAME-TECHNOLOGIES\CSC8503\GAMETECH\TUTORIALGAME.CPP
D:\LAOSONG\HOMEWORK\ADVANCED-GAME-TECHNOLOGIES\CSC8503\GAMETECH\DEBUG\VC142.PDB
D:\LAOSONG\HOMEWORK\ADVANCED-GAME-TECHNOLOGIES\CSC8503\GAMETECH\DEBUG\VC142.IDB
D:\LAOSONG\HOMEWORK\ADVANCED-GAME-TECHNOLOGIES\CSC8503\GAMETECH\DEBUG\TUTORIALGAME.OBJ
D:\LAOSONG\HOMEWORK\ADVANCED-GAME-TECHNOLOGIES\CSC8503\GAMETECH\DEBUG\NETWORKEDGAME.OBJ
D:\LAOSONG\HOMEWORK\ADVANCED-GAME-TECHNOLOGIES\CSC8503\GAMETECH\DEBUG\NETWORKPLAYER.OBJ
D:\LAOSONG\HOMEWORK\ADVANCED-GAME-TECHNOLOGIES\CSC8503\GAMETECH\DEBUG\MAIN.OBJ
D:\LAOSONG\HOMEWORK\ADVANCED-GAME-TECHNOLOGIES\CSC8503\GAMETECH\DEBUG\GOOSEPLAYER.OBJ
D:\LAOSONG\HOMEWORK\ADVANCED-GAME-TECHNOLOGIES\CSC8503\GAMETECH\DEBUG\GAMETECHRENDERER.OBJ
D:\LAOSONG\HOMEWORK\ADVANCED-GAME-TECHNOLOGIES\CSC8503\GAMETECH\DEBUG\ENEMYOBJECT.OBJ
D:\LAOSONG\HOMEWORK\ADVANCED-GAME-TECHNOLOGIES\CSC8503\GAMETECH\DEBUG\DESTINATIONOBJECT.OBJ
D:\LAOSONG\HOMEWORK\ADVANCED-GAME-TECHNOLOGIES\CSC8503\GAMETECH\DEBUG\APPLEOBJECT.OBJ
^D:\LAOSONG\HOMEWORK\ADVANCED-GAME-TECHNOLOGIES\CSC8503\GAMETECH\APPLEOBJECT.CPP
D:\LAOSONG\HOMEWORK\ADVANCED-GAME-TECHNOLOGIES\CSC8503\GAMETECH\DEBUG\VC142.PDB
^D:\LAOSONG\HOMEWORK\ADVANCED-GAME-TECHNOLOGIES\CSC8503\GAMETECH\DESTINATIONOBJECT.CPP
D:\LAOSONG\HOMEWORK\ADVANCED-GAME-TECHNOLOGIES\CSC8503\GAMETECH\DEBUG\VC142.PDB
^D:\LAOSONG\HOMEWORK\ADVANCED-GAME-TECHNOLOGIES\CSC8503\GAMETECH\GAMETECHRENDERER.CPP
D:\LAOSONG\HOMEWORK\ADVANCED-GAME-TECHNOLOGIES\CSC8503\GAMETECH\DEBUG\VC142.PDB
^D:\LAOSONG\HOMEWORK\ADVANCED-GAME-TECHNOLOGIES\CSC8503\GAMETECH\GOOSEPLAYER.CPP
D:\LAOSONG\HOMEWORK\ADVANCED-GAME-TECHNOLOGIES\CSC8503\GAMETECH\DEBUG\VC142.PDB
^D:\LAOSONG\HOMEWORK\ADVANCED-GAME-TECHNOLOGIES\CSC8503\GAMETECH\ENEMYOBJECT.CPP|D:\LAOSONG\HOMEWORK\ADVANCED-GAME-TECHNOLOGIES\CSC8503\GAMETECH\MAIN.CPP|D:\LAOSONG\HOMEWORK\ADVANCED-GAME-TECHNOLOGIES\CSC8503\GAMETECH\NETWORKEDGAME.CPP|D:\LAOSONG\HOMEWORK\ADVANCED-GAME-TECHNOLOGIES\CSC8503\GAMETECH\NETWORKPLAYER.CPP|D:\LAOSONG\HOMEWORK\ADVANCED-GAME-TECHNOLOGIES\CSC8503\GAMETECH\TUTORIALGAME.CPP
D:\LAOSONG\HOMEWORK\ADVANCED-GAME-TECHNOLOGIES\CSC8503\GAMETECH\DEBUG\VC142.PDB
D:\LAOSONG\HOMEWORK\ADVANCED-GAME-TECHNOLOGIES\CSC8503\GAMETECH\DEBUG\VC142.IDB
D:\LAOSONG\HOMEWORK\ADVANCED-GAME-TECHNOLOGIES\CSC8503\GAMETECH\DEBUG\TUTORIALGAME.OBJ
D:\LAOSONG\HOMEWORK\ADVANCED-GAME-TECHNOLOGIES\CSC8503\GAMETECH\DEBUG\NETWORKEDGAME.OBJ
D:\LAOSONG\HOMEWORK\ADVANCED-GAME-TECHNOLOGIES\CSC8503\GAMETECH\DEBUG\NETWORKPLAYER.OBJ
D:\LAOSONG\HOMEWORK\ADVANCED-GAME-TECHNOLOGIES\CSC8503\GAMETECH\DEBUG\MAIN.OBJ
D:\LAOSONG\HOMEWORK\ADVANCED-GAME-TECHNOLOGIES\CSC8503\GAMETECH\DEBUG\ENEMYOBJECT.OBJ
^D:\LAOSONG\HOMEWORK\ADVANCED-GAME-TECHNOLOGIES\CSC8503\GAMETECH\ENEMYOBJECT.CPP
D:\LAOSONG\HOMEWORK\ADVANCED-GAME-TECHNOLOGIES\CSC8503\GAMETECH\DEBUG\VC142.PDB
^D:\LAOSONG\HOMEWORK\ADVANCED-GAME-TECHNOLOGIES\CSC8503\GAMETECH\MAIN.CPP
D:\LAOSONG\HOMEWORK\ADVANCED-GAME-TECHNOLOGIES\CSC8503\GAMETECH\DEBUG\VC142.PDB
^D:\LAOSONG\HOMEWORK\ADVANCED-GAME-TECHNOLOGIES\CSC8503\GAMETECH\NETWORKPLAYER.CPP
D:\LAOSONG\HOMEWORK\ADVANCED-GAME-TECHNOLOGIES\CSC8503\GAMETECH\DEBUG\VC142.PDB
^D:\LAOSONG\HOMEWORK\ADVANCED-GAME-TECHNOLOGIES\CSC8503\GAMETECH\NETWORKEDGAME.CPP
D:\LAOSONG\HOMEWORK\ADVANCED-GAME-TECHNOLOGIES\CSC8503\GAMETECH\DEBUG\VC142.PDB
^D:\LAOSONG\HOMEWORK\ADVANCED-GAME-TECHNOLOGIES\CSC8503\GAMETECH\TUTORIALGAME.CPP
D:\LAOSONG\HOMEWORK\ADVANCED-GAME-TECHNOLOGIES\CSC8503\GAMETECH\DEBUG\VC142.PDB
